# $Id: 01-mesh.01-linear.inp 616 2011-08-19 17:06:49Z micael $

CalculationMode = nt
Verbose = 40

MeshType = linear
MeshStartingPoint = 1e-5
MeshOutmostPoint = 100


NumericalTests = derivatives
%TestFunctions
 "gaussian"  | gaussian    | 0.0 |  0.0 | 1.0
%
