# $Id: 01-non_rel.02-spin.inp 616 2011-08-19 17:06:49Z micael $

CalculationMode = ae
Verbose = 40

NuclearCharge = 5
SpinMode = polarized

%Orbitals
"He"
 2 | 0 | 1 | 1
 2 | 1 | 1 | 0
%

XCFunctional = lda_x + lda_c_vwn
