# $Id: 02-scalar_rel.01-no_spin.inp 690 2012-03-08 19:03:02Z micael $

CalculationMode = ae
Verbose = 40

WaveEquation = scalar_rel
NuclearCharge = 24

%Orbitals
"Ar"
 4 | 0 | 1 | 0
 3 | 2 | 5 | 0
%

XCFunctional = lda_x + lda_c_vwn
XCCorrections = rel_x

ConvAbsDens = 1e-07

EigenSolverTolerance = 1e-7
ODEIntTolerance = 1e-14
